{
    "generatedAt":  "2026-03-24T09:03:50Z",
    "sample":  "hf-normal",
    "device":  {
                   "deviceId":  "142370a3-cca6-43f4-953a-e7755f59b90f",
                   "secretFile":  "backups/evidence/field-rehearsal-device-latest.json"
               },
    "steps":  [
                  {
                      "name":  "create-rehearsal-device",
                      "ok":  true,
                      "startedAt":  "2026-03-24T09:03:43.7479413Z",
                      "output":  "{\r\n    \"success\":  true,\r\n    \"code\":  200,\r\n    \"message\":  \"ok\",\r\n    \"data\":  {\r\n                 \"deviceId\":  \"142370a3-cca6-43f4-953a-e7755f59b90f\",\r\n                 \"deviceSecret\":  \"***REDACTED***\",\r\n                 \"schemaVersion\":  1,\r\n                 \"credVersion\":  1\r\n             },\r\n    \"timestamp\":  \"2026-03-24T09:03:44.574Z\",\r\n    \"traceId\":  \"5ea1e95c-20bc-44cb-9dad-fe6814a84fa1\",\r\n    \"secretFile\":  \"backups/evidence/field-rehearsal-device-latest.json\"\r\n}"
                  },
                  {
                      "name":  "configure-emqx-docker-webhook",
                      "ok":  true,
                      "startedAt":  "2026-03-24T09:03:44.9182305Z",
                      "output":  "ok"
                  },
                  {
                      "name":  "publish-sample-docker-mqtt",
                      "ok":  true,
                      "startedAt":  "2026-03-24T09:03:45.7909405Z",
                      "output":  "{\r\n  \"mode\": \"mqtt\",\r\n  \"sample\": \"hf-normal.json\",\r\n  \"topic\": \"telemetry/142370a3-cca6-43f4-953a-e7755f59b90f\",\r\n  \"mqttUrl\": \"mqtt://lsmv2_emqx:1883\",\r\n  \"bytes\": 168\r\n}"
                  },
                  {
                      "name":  "docker-acceptance",
                      "ok":  true,
                      "startedAt":  "2026-03-24T09:03:49.8427578Z",
                      "output":  "{\r\n    \"generatedAt\":  \"2026-03-24T09:03:50.310Z\",\r\n    \"login\":  {\r\n                  \"status\":  200,\r\n                  \"body\":  \"{\\\"success\\\":true,\\\"code\\\":200,\\\"message\\\":\\\"ok\\\",\\\"data\\\":{\\\"token\\\":\\\"***REDACTED***\\\",\\\"refreshToken\\\":\\\"***REDACTED***\\\",\\\"expiresIn\\\":7200,\\\"user\\\":{\\\"userId\\\":\\\"20000000-0000-0000-0000-000000000001\\\",\\\"username\\\":\\\"admin\\\",\\\"realName\\\":\\\"Local Admin\\\",\\\"roles\\\":[\\\"admin\\\"],\\\"permissions\\\":[\\\"alert:config\\\",\\\"alert:handle\\\",\\\"alert:view\\\",\\\"data:analysis\\\",\\\"data:export\\\",\\\"data:view\\\",\\\"device:control\\\",\\\"device:create\\\",\\\"device:delete\\\",\\\"device:update\\\",\\\"device:view\\\",\\\"system:config\\\",\\\"system:log\\\",\\\"user:create\\\",\\\"user:update\\\",\\\"user:view\\\"]}},\\\"timestamp\\\":\\\"2026-03-24T09:03:50.460Z\\\",\\\"traceId\\\":\\\"6c044217-72cb-4a5c-a5bc-8e2b836ab3fb\\\"}\"\r\n              },\r\n    \"checks\":  [\r\n                   {\r\n                       \"url\":  \"http://127.0.0.1:8080/health\",\r\n                       \"status\":  200,\r\n                       \"ok\":  true,\r\n                       \"body\":  \"{\\\"ok\\\":true,\\\"status\\\":\\\"OK\\\",\\\"timestamp\\\":\\\"2026-03-24T09:03:50.474Z\\\",\\\"service\\\":\\\"api-service\\\",\\\"port\\\":8080}\"\r\n                   },\r\n                   {\r\n                       \"url\":  \"http://127.0.0.1:8080/api/v1/system/status\",\r\n                       \"status\":  200,\r\n                       \"ok\":  true,\r\n                       \"body\":  \"{\\\"success\\\":true,\\\"code\\\":200,\\\"message\\\":\\\"ok\\\",\\\"data\\\":{\\\"uptimeS\\\":22082,\\\"postgres\\\":{\\\"status\\\":\\\"healthy\\\"},\\\"clickhouse\\\":{\\\"status\\\":\\\"healthy\\\"},\\\"kafka\\\":{\\\"status\\\":\\\"configured\\\"},\\\"emqx\\\":{\\\"status\\\":\\\"unknown\\\"},\\\"source\\\":\\\"health_summary\\\",\\\"note\\\":\\\"当前展示的是服务健康摘要，不表示真实 CPU/内存/磁盘占用。\\\",\\\"items\\\":[{\\\"key\\\":\\\"postgres\\\",\\\"label\\\":\\\"PostgreSQL\\\",\\\"status\\\":\\\"healthy\\\",\\\"detail\\\":\\\"healthy\\\"},{\\\"key\\\":\\\"clickhouse\\\",\\\"label\\\":\\\"ClickHouse\\\",\\\"status\\\":\\\"healthy\\\",\\\"detail\\\":\\\"healthy\\\"},{\\\"key\\\":\\\"kafka\\\",\\\"label\\\":\\\"Kafka\\\",\\\"status\\\":\\\"healthy\\\",\\\"detail\\\":\\\"configured\\\"}]},\\\"timestamp\\\":\\\"2026-03-24T09:03:50.491Z\\\",\\\"traceId\\\":\\\"c017441b-023b-46df-af47-59ebf09fa17d\\\"}\"\r\n                   },\r\n                   {\r\n                       \"url\":  \"http://127.0.0.1:8080/api/v1/stations?page=1\\u0026pageSize=5\",\r\n                       \"status\":  200,\r\n                       \"ok\":  true,\r\n                       \"body\":  \"{\\\"success\\\":true,\\\"code\\\":200,\\\"message\\\":\\\"ok\\\",\\\"data\\\":{\\\"list\\\":[{\\\"stationId\\\":\\\"f829d79e-df13-4c5c-aadc-6d3341d7ada1\\\",\\\"stationCode\\\":\\\"DEMO002\\\",\\\"stationName\\\":\\\"示例监测点B\\\",\\\"status\\\":\\\"active\\\",\\\"latitude\\\":22.6892,\\\"longitude\\\":108.3579,\\\"altitude\\\":null,\\\"metadata\\\":{\\\"note\\\":\\\"seed demo\\\",\\\"riskLevel\\\":\\\"low\\\",\\\"risk_level\\\":\\\"low\\\",\\\"locationName\\\":\\\"示例监测区B\\\"},\\\"createdAt\\\":\\\"2026-03-22T13:18:59Z\\\",\\\"updatedAt\\\":\\\"2026-03-22T13:21:07Z\\\"},{\\\"stationId\\\":\\\"2dc06788-cb7b-4054-bfec-6426cea8e4eb\\\",\\\"stationCode\\\":\\\"DEMO001\\\",\\\"stationName\\\":\\\"示例监测点A\\\",\\\"status\\\":\\\"active\\\",\\\"latitude\\\":22.6847,\\\"longitude\\\":108.3516,\\\"altitude\\\":null,\\\"metadata\\\":{\\\"note\\\":\\\"seed demo\\\",\\\"riskLevel\\\":\\\"medium\\\",\\\"risk_level\\\":\\\"medium\\\",\\\"locationName\\\":\\\"示例监测区A\\\"},\\\"createdAt\\\":\\\"2026-03-22T13:18:21Z\\\",\\\"updatedAt\\\":\\\"2026-03-22T13:21:07Z\\\"}],\\\"pagination\\\":{\\\"page\\\":1,\\\"pageSize\\\":5,\\\"total\\\":2,\\\"totalPages\\\":1}},\\\"timestamp\\\":\\\"2026-03-24T09:03:50.511Z\\\",\\\"traceId\\\":\\\"5032d4b1-e5fe-4076-8ae7-e281d43f4019\\\"}\"\r\n                   },\r\n                   {\r\n                       \"url\":  \"http://127.0.0.1:8080/api/v1/devices?page=1\\u0026pageSize=5\",\r\n                       \"status\":  200,\r\n                       \"ok\":  true,\r\n                       \"body\":  \"{\\\"success\\\":true,\\\"code\\\":200,\\\"message\\\":\\\"ok\\\",\\\"data\\\":{\\\"list\\\":[{\\\"deviceId\\\":\\\"142370a3-cca6-43f4-953a-e7755f59b90f\\\",\\\"deviceName\\\":\\\"field-rehearsal-device\\\",\\\"deviceType\\\":\\\"multi_sensor\\\",\\\"status\\\":\\\"active\\\",\\\"stationId\\\":null,\\\"lastSeenAt\\\":\\\"2026-03-24T09:03:49.523Z\\\"},{\\\"deviceId\\\":\\\"00000000-0000-0000-0000-000000000002\\\",\\\"deviceName\\\":\\\"device_2\\\",\\\"deviceType\\\":\\\"multi_sensor\\\",\\\"status\\\":\\\"active\\\",\\\"stationId\\\":\\\"2dc06788-cb7b-4054-bfec-6426cea8e4eb\\\",\\\"lastSeenAt\\\":\\\"2026-03-22T13:21:07.226Z\\\"},{\\\"deviceId\\\":\\\"00000000-0000-0000-0000-000000000003\\\",\\\"deviceName\\\":\\\"device_3\\\",\\\"deviceType\\\":\\\"multi_sensor\\\",\\\"status\\\":\\\"active\\\",\\\"stationId\\\":\\\"2dc06788-cb7b-4054-bfec-6426cea8e4eb\\\",\\\"lastSeenAt\\\":\\\"2026-03-22T13:21:07.226Z\\\"},{\\\"deviceId\\\":\\\"00000000-0000-0000-0000-000000000001\\\",\\\"deviceName\\\":\\\"device_1\\\",\\\"deviceType\\\":\\\"multi_sensor\\\",\\\"status\\\":\\\"active\\\",\\\"stationId\\\":\\\"2dc06788-cb7b-4054-bfec-6426cea8e4eb\\\",\\\"lastSeenAt\\\":\\\"2026-03-22T13:21:07.226Z\\\"},{\\\"deviceId\\\":\\\"00000000-0000-0000-0000-000000000005\\\",\\\"deviceName\\\":\\\"device_5\\\",\\\"deviceType\\\":\\\"tilt\\\",\\\"status\\\":\\\"active\\\",\\\"stationId\\\":\\\"f829d79e-df13-4c5c-aadc-6d3341d7ada1\\\",\\\"lastSeenAt\\\":\\\"2026-03-20T13:21:07.226Z\\\"}],\\\"pagination\\\":{\\\"page\\\":1,\\\"pageSize\\\":5,\\\"total\\\":7,\\\"totalPages\\\":2}},\\\"timestamp\\\":\\\"2026-03-24T09:03:50.520Z\\\",\\\"traceId\\\":\\\"0dcf3fda-cf7e-475c-a097-955050f19876\\\"}\"\r\n                   }\r\n               ]\r\n}"
                  }
              ],
    "outputs":  {
                    "publish":  "{\r\n  \"mode\": \"mqtt\",\r\n  \"sample\": \"hf-normal.json\",\r\n  \"topic\": \"telemetry/142370a3-cca6-43f4-953a-e7755f59b90f\",\r\n  \"mqttUrl\": \"mqtt://lsmv2_emqx:1883\",\r\n  \"bytes\": 168\r\n}",
                    "acceptance":  "{\r\n    \"generatedAt\":  \"2026-03-24T09:03:50.310Z\",\r\n    \"login\":  {\r\n                  \"status\":  200,\r\n                  \"body\":  \"{\\\"success\\\":true,\\\"code\\\":200,\\\"message\\\":\\\"ok\\\",\\\"data\\\":{\\\"token\\\":\\\"***REDACTED***\\\",\\\"refreshToken\\\":\\\"***REDACTED***\\\",\\\"expiresIn\\\":7200,\\\"user\\\":{\\\"userId\\\":\\\"20000000-0000-0000-0000-000000000001\\\",\\\"username\\\":\\\"admin\\\",\\\"realName\\\":\\\"Local Admin\\\",\\\"roles\\\":[\\\"admin\\\"],\\\"permissions\\\":[\\\"alert:config\\\",\\\"alert:handle\\\",\\\"alert:view\\\",\\\"data:analysis\\\",\\\"data:export\\\",\\\"data:view\\\",\\\"device:control\\\",\\\"device:create\\\",\\\"device:delete\\\",\\\"device:update\\\",\\\"device:view\\\",\\\"system:config\\\",\\\"system:log\\\",\\\"user:create\\\",\\\"user:update\\\",\\\"user:view\\\"]}},\\\"timestamp\\\":\\\"2026-03-24T09:03:50.460Z\\\",\\\"traceId\\\":\\\"6c044217-72cb-4a5c-a5bc-8e2b836ab3fb\\\"}\"\r\n              },\r\n    \"checks\":  [\r\n                   {\r\n                       \"url\":  \"http://127.0.0.1:8080/health\",\r\n                       \"status\":  200,\r\n                       \"ok\":  true,\r\n                       \"body\":  \"{\\\"ok\\\":true,\\\"status\\\":\\\"OK\\\",\\\"timestamp\\\":\\\"2026-03-24T09:03:50.474Z\\\",\\\"service\\\":\\\"api-service\\\",\\\"port\\\":8080}\"\r\n                   },\r\n                   {\r\n                       \"url\":  \"http://127.0.0.1:8080/api/v1/system/status\",\r\n                       \"status\":  200,\r\n                       \"ok\":  true,\r\n                       \"body\":  \"{\\\"success\\\":true,\\\"code\\\":200,\\\"message\\\":\\\"ok\\\",\\\"data\\\":{\\\"uptimeS\\\":22082,\\\"postgres\\\":{\\\"status\\\":\\\"healthy\\\"},\\\"clickhouse\\\":{\\\"status\\\":\\\"healthy\\\"},\\\"kafka\\\":{\\\"status\\\":\\\"configured\\\"},\\\"emqx\\\":{\\\"status\\\":\\\"unknown\\\"},\\\"source\\\":\\\"health_summary\\\",\\\"note\\\":\\\"当前展示的是服务健康摘要，不表示真实 CPU/内存/磁盘占用。\\\",\\\"items\\\":[{\\\"key\\\":\\\"postgres\\\",\\\"label\\\":\\\"PostgreSQL\\\",\\\"status\\\":\\\"healthy\\\",\\\"detail\\\":\\\"healthy\\\"},{\\\"key\\\":\\\"clickhouse\\\",\\\"label\\\":\\\"ClickHouse\\\",\\\"status\\\":\\\"healthy\\\",\\\"detail\\\":\\\"healthy\\\"},{\\\"key\\\":\\\"kafka\\\",\\\"label\\\":\\\"Kafka\\\",\\\"status\\\":\\\"healthy\\\",\\\"detail\\\":\\\"configured\\\"}]},\\\"timestamp\\\":\\\"2026-03-24T09:03:50.491Z\\\",\\\"traceId\\\":\\\"c017441b-023b-46df-af47-59ebf09fa17d\\\"}\"\r\n                   },\r\n                   {\r\n                       \"url\":  \"http://127.0.0.1:8080/api/v1/stations?page=1\\u0026pageSize=5\",\r\n                       \"status\":  200,\r\n                       \"ok\":  true,\r\n                       \"body\":  \"{\\\"success\\\":true,\\\"code\\\":200,\\\"message\\\":\\\"ok\\\",\\\"data\\\":{\\\"list\\\":[{\\\"stationId\\\":\\\"f829d79e-df13-4c5c-aadc-6d3341d7ada1\\\",\\\"stationCode\\\":\\\"DEMO002\\\",\\\"stationName\\\":\\\"示例监测点B\\\",\\\"status\\\":\\\"active\\\",\\\"latitude\\\":22.6892,\\\"longitude\\\":108.3579,\\\"altitude\\\":null,\\\"metadata\\\":{\\\"note\\\":\\\"seed demo\\\",\\\"riskLevel\\\":\\\"low\\\",\\\"risk_level\\\":\\\"low\\\",\\\"locationName\\\":\\\"示例监测区B\\\"},\\\"createdAt\\\":\\\"2026-03-22T13:18:59Z\\\",\\\"updatedAt\\\":\\\"2026-03-22T13:21:07Z\\\"},{\\\"stationId\\\":\\\"2dc06788-cb7b-4054-bfec-6426cea8e4eb\\\",\\\"stationCode\\\":\\\"DEMO001\\\",\\\"stationName\\\":\\\"示例监测点A\\\",\\\"status\\\":\\\"active\\\",\\\"latitude\\\":22.6847,\\\"longitude\\\":108.3516,\\\"altitude\\\":null,\\\"metadata\\\":{\\\"note\\\":\\\"seed demo\\\",\\\"riskLevel\\\":\\\"medium\\\",\\\"risk_level\\\":\\\"medium\\\",\\\"locationName\\\":\\\"示例监测区A\\\"},\\\"createdAt\\\":\\\"2026-03-22T13:18:21Z\\\",\\\"updatedAt\\\":\\\"2026-03-22T13:21:07Z\\\"}],\\\"pagination\\\":{\\\"page\\\":1,\\\"pageSize\\\":5,\\\"total\\\":2,\\\"totalPages\\\":1}},\\\"timestamp\\\":\\\"2026-03-24T09:03:50.511Z\\\",\\\"traceId\\\":\\\"5032d4b1-e5fe-4076-8ae7-e281d43f4019\\\"}\"\r\n                   },\r\n                   {\r\n                       \"url\":  \"http://127.0.0.1:8080/api/v1/devices?page=1\\u0026pageSize=5\",\r\n                       \"status\":  200,\r\n                       \"ok\":  true,\r\n                       \"body\":  \"{\\\"success\\\":true,\\\"code\\\":200,\\\"message\\\":\\\"ok\\\",\\\"data\\\":{\\\"list\\\":[{\\\"deviceId\\\":\\\"142370a3-cca6-43f4-953a-e7755f59b90f\\\",\\\"deviceName\\\":\\\"field-rehearsal-device\\\",\\\"deviceType\\\":\\\"multi_sensor\\\",\\\"status\\\":\\\"active\\\",\\\"stationId\\\":null,\\\"lastSeenAt\\\":\\\"2026-03-24T09:03:49.523Z\\\"},{\\\"deviceId\\\":\\\"00000000-0000-0000-0000-000000000002\\\",\\\"deviceName\\\":\\\"device_2\\\",\\\"deviceType\\\":\\\"multi_sensor\\\",\\\"status\\\":\\\"active\\\",\\\"stationId\\\":\\\"2dc06788-cb7b-4054-bfec-6426cea8e4eb\\\",\\\"lastSeenAt\\\":\\\"2026-03-22T13:21:07.226Z\\\"},{\\\"deviceId\\\":\\\"00000000-0000-0000-0000-000000000003\\\",\\\"deviceName\\\":\\\"device_3\\\",\\\"deviceType\\\":\\\"multi_sensor\\\",\\\"status\\\":\\\"active\\\",\\\"stationId\\\":\\\"2dc06788-cb7b-4054-bfec-6426cea8e4eb\\\",\\\"lastSeenAt\\\":\\\"2026-03-22T13:21:07.226Z\\\"},{\\\"deviceId\\\":\\\"00000000-0000-0000-0000-000000000001\\\",\\\"deviceName\\\":\\\"device_1\\\",\\\"deviceType\\\":\\\"multi_sensor\\\",\\\"status\\\":\\\"active\\\",\\\"stationId\\\":\\\"2dc06788-cb7b-4054-bfec-6426cea8e4eb\\\",\\\"lastSeenAt\\\":\\\"2026-03-22T13:21:07.226Z\\\"},{\\\"deviceId\\\":\\\"00000000-0000-0000-0000-000000000005\\\",\\\"deviceName\\\":\\\"device_5\\\",\\\"deviceType\\\":\\\"tilt\\\",\\\"status\\\":\\\"active\\\",\\\"stationId\\\":\\\"f829d79e-df13-4c5c-aadc-6d3341d7ada1\\\",\\\"lastSeenAt\\\":\\\"2026-03-20T13:21:07.226Z\\\"}],\\\"pagination\\\":{\\\"page\\\":1,\\\"pageSize\\\":5,\\\"total\\\":7,\\\"totalPages\\\":2}},\\\"timestamp\\\":\\\"2026-03-24T09:03:50.520Z\\\",\\\"traceId\\\":\\\"0dcf3fda-cf7e-475c-a097-955050f19876\\\"}\"\r\n                   }\r\n               ]\r\n}"
                },
    "evidenceSummary":  "E:\\学校\\02 项目\\99 山体滑坡优化完善\\landslide-monitoring-v2-mainline\\backups\\evidence\\field-rehearsal-docker-20260324-170350\\summary.json"
}
