{
    "generatedAt":  "2026-03-24T10:57:23.922Z",
    "login":  {
                  "status":  200,
                  "body":  "{\"success\":true,\"code\":200,\"message\":\"ok\",\"data\":{\"token\":\"***REDACTED***\",\"refreshToken\":\"***REDACTED***\",\"expiresIn\":7200,\"user\":{\"userId\":\"20000000-0000-0000-0000-000000000001\",\"username\":\"admin\",\"realName\":\"Local Admin\",\"roles\":[\"admin\"],\"permissions\":[\"alert:config\",\"alert:handle\",\"alert:view\",\"data:analysis\",\"data:export\",\"data:view\",\"device:control\",\"device:create\",\"device:delete\",\"device:update\",\"device:view\",\"system:config\",\"system:log\",\"user:create\",\"user:update\",\"user:view\"]}},\"timestamp\":\"2026-03-24T10:57:24.074Z\",\"traceId\":\"6459e3f2-a322-4468-8856-9aa80a7c1513\"}"
              },
    "checks":  [
                   {
                       "url":  "http://127.0.0.1:8080/health",
                       "status":  200,
                       "ok":  true,
                       "body":  "{\"ok\":true,\"status\":\"OK\",\"timestamp\":\"2026-03-24T10:57:24.093Z\",\"service\":\"api-service\",\"port\":8080}"
                   },
                   {
                       "url":  "http://127.0.0.1:8080/api/v1/system/status",
                       "status":  200,
                       "ok":  true,
                       "body":  "{\"success\":true,\"code\":200,\"message\":\"ok\",\"data\":{\"uptimeS\":3065,\"postgres\":{\"status\":\"healthy\"},\"clickhouse\":{\"status\":\"healthy\"},\"kafka\":{\"status\":\"configured\"},\"emqx\":{\"status\":\"unknown\"},\"source\":\"health_summary\",\"note\":\"当前展示的是服务健康摘要，不表示真实 CPU/内存/磁盘占用。\",\"items\":[{\"key\":\"postgres\",\"label\":\"PostgreSQL\",\"status\":\"healthy\",\"detail\":\"healthy\"},{\"key\":\"clickhouse\",\"label\":\"ClickHouse\",\"status\":\"healthy\",\"detail\":\"healthy\"},{\"key\":\"kafka\",\"label\":\"Kafka\",\"status\":\"healthy\",\"detail\":\"configured\"}]},\"timestamp\":\"2026-03-24T10:57:24.103Z\",\"traceId\":\"f098d21a-7629-4874-9809-e5dbf06840d1\"}"
                   },
                   {
                       "url":  "http://127.0.0.1:8080/api/v1/stations?page=1\u0026pageSize=5",
                       "status":  200,
                       "ok":  true,
                       "body":  "{\"success\":true,\"code\":200,\"message\":\"ok\",\"data\":{\"list\":[{\"stationId\":\"f829d79e-df13-4c5c-aadc-6d3341d7ada1\",\"stationCode\":\"DEMO002\",\"stationName\":\"示例监测点B\",\"status\":\"active\",\"latitude\":22.6892,\"longitude\":108.3579,\"altitude\":null,\"metadata\":{\"note\":\"seed demo\",\"riskLevel\":\"low\",\"risk_level\":\"low\",\"locationName\":\"示例监测区B\"},\"createdAt\":\"2026-03-22T13:18:59Z\",\"updatedAt\":\"2026-03-22T13:21:07Z\"},{\"stationId\":\"2dc06788-cb7b-4054-bfec-6426cea8e4eb\",\"stationCode\":\"DEMO001\",\"stationName\":\"示例监测点A\",\"status\":\"active\",\"latitude\":22.6847,\"longitude\":108.3516,\"altitude\":null,\"metadata\":{\"note\":\"seed demo\",\"riskLevel\":\"medium\",\"risk_level\":\"medium\",\"locationName\":\"示例监测区A\"},\"createdAt\":\"2026-03-22T13:18:21Z\",\"updatedAt\":\"2026-03-22T13:21:07Z\"}],\"pagination\":{\"page\":1,\"pageSize\":5,\"total\":2,\"totalPages\":1}},\"timestamp\":\"2026-03-24T10:57:24.111Z\",\"traceId\":\"f104f036-e20e-424b-b9bd-a68b7ddab9d6\"}"
                   },
                   {
                       "url":  "http://127.0.0.1:8080/api/v1/devices?page=1\u0026pageSize=5",
                       "status":  200,
                       "ok":  true,
                       "body":  "{\"success\":true,\"code\":200,\"message\":\"ok\",\"data\":{\"list\":[{\"deviceId\":\"73aa8b0f-9c17-4bba-91dd-ac73e08c657a\",\"deviceName\":\"field-rehearsal-device\",\"deviceType\":\"multi_sensor\",\"status\":\"active\",\"stationId\":null,\"lastSeenAt\":\"2026-03-24T10:57:23.249Z\"},{\"deviceId\":\"00000000-0000-0000-0000-000000000002\",\"deviceName\":\"device_2\",\"deviceType\":\"multi_sensor\",\"status\":\"active\",\"stationId\":\"2dc06788-cb7b-4054-bfec-6426cea8e4eb\",\"lastSeenAt\":\"2026-03-22T13:21:07.226Z\"},{\"deviceId\":\"00000000-0000-0000-0000-000000000003\",\"deviceName\":\"device_3\",\"deviceType\":\"multi_sensor\",\"status\":\"active\",\"stationId\":\"2dc06788-cb7b-4054-bfec-6426cea8e4eb\",\"lastSeenAt\":\"2026-03-22T13:21:07.226Z\"},{\"deviceId\":\"00000000-0000-0000-0000-000000000001\",\"deviceName\":\"device_1\",\"deviceType\":\"multi_sensor\",\"status\":\"active\",\"stationId\":\"2dc06788-cb7b-4054-bfec-6426cea8e4eb\",\"lastSeenAt\":\"2026-03-22T13:21:07.226Z\"},{\"deviceId\":\"00000000-0000-0000-0000-000000000005\",\"deviceName\":\"device_5\",\"deviceType\":\"tilt\",\"status\":\"active\",\"stationId\":\"f829d79e-df13-4c5c-aadc-6d3341d7ada1\",\"lastSeenAt\":\"2026-03-20T13:21:07.226Z\"}],\"pagination\":{\"page\":1,\"pageSize\":5,\"total\":7,\"totalPages\":2}},\"timestamp\":\"2026-03-24T10:57:24.117Z\",\"traceId\":\"8e7bc052-0c68-4202-9108-cabec8a574b5\"}"
                   }
               ]
}
