{
    "generatedAt":  "2026-03-24T08:00:51Z",
    "sample":  "hf-normal",
    "deviceId":  "a54609f8-0b39-44ee-a67d-1e33de71fdc7",
    "allStepsOk":  true,
    "stepCount":  4,
    "steps":  [
                  {
                      "name":  "create-rehearsal-device",
                      "ok":  true
                  },
                  {
                      "name":  "configure-emqx-docker-webhook",
                      "ok":  true
                  },
                  {
                      "name":  "publish-sample-docker-mqtt",
                      "ok":  true
                  },
                  {
                      "name":  "docker-acceptance",
                      "ok":  true
                  }
              ],
    "publish":  "{\r\n  \"mode\": \"mqtt\",\r\n  \"sample\": \"hf-normal.json\",\r\n  \"topic\": \"telemetry/a54609f8-0b39-44ee-a67d-1e33de71fdc7\",\r\n  \"mqttUrl\": \"mqtt://lsmv2_emqx:1883\",\r\n  \"bytes\": 168\r\n}",
    "acceptance":  "{\r\n  \"generatedAt\": \"2026-03-24T07:55:25.589Z\",\r\n  \"login\": {\r\n    \"status\": 200,\r\n    \"body\": \"{\\\"success\\\":true,\\\"code\\\":200,\\\"message\\\":\\\"ok\\\",\\\"data\\\":{\\\"token\\\":\\\"eyJhbGciOiJIUzI1NiIsInR5cCI6IkpXVCJ9.eyJzdWIiOiIyMDAwMDAwMC0wMDAwLTAwMDAtMDAwMC0wMDAwMDAwMDAwMDEiLCJ1c2VybmFtZSI6ImFkbWluIiwidHlwIjoiYWNjZXNzIiwiaWF0IjoxNzc0MzM4OTI1LCJleHAiOjE3NzQzNDYxMjV9.Nh8KxPYoAbqBG8NKvTs-voxESeojVLRJFEk8u70dmYw\\\",\\\"refreshToken\\\":\\\"eyJhbGciOiJIUzI1NiIsInR5cCI6IkpXVCJ9.eyJzdWIiOiIyMDAwMDAwMC0wMDAwLTAwMDAtMDAwMC0wMDAwMDAwMDAwMDEiLCJ1c2VybmFtZSI6ImFkbWluIiwidHlwIjoicmVmcmVzaCIsImlhdCI6MTc3NDMzODkyNSwiZXhwIjoxNzc0OTQzNzI1fQ.qrKrKfm-8iGjGXIJOSyrDK_JmT4lqaC4MqKFltqiPes\\\",\\\"expiresIn\\\":7200,\\\"user\\\":{\\\"userId\\\":\\\"20000000-0000-0000-0000-000000000001\\\",\\\"username\\\":\\\"admin\\\",\\\"realName\\\":\\\"Local Admin\\\",\\\"roles\\\":[\\\"admin\\\"],\\\"permissions\\\":[\\\"alert:config\\\",\\\"alert:handle\\\",\\\"alert:view\\\",\\\"data:analysis\\\",\\\"data:export\\\",\\\"data:view\\\",\\\"device:control\\\",\\\"device:create\\\",\\\"device:delete\\\",\\\"device:update\\\",\\\"device:view\\\",\\\"system:config\\\",\\\"system:log\\\",\\\"user:create\\\",\\\"user:update\\\",\\\"user:view\\\"]}},\\\"timestamp\\\":\\\"2026-03-24T07:55:25.730Z\\\",\\\"traceId\\\":\\\"4e1d6b18-a1cf-4ab7-95d7-bc94e7cc6c34\\\"}\"\r\n  },\r\n  \"checks\": [\r\n    {\r\n      \"url\": \"http://127.0.0.1:8080/health\",\r\n      \"status\": 200,\r\n      \"ok\": true,\r\n      \"body\": \"{\\\"ok\\\":true,\\\"status\\\":\\\"OK\\\",\\\"timestamp\\\":\\\"2026-03-24T07:55:25.743Z\\\",\\\"service\\\":\\\"api-service\\\",\\\"port\\\":8080}\"\r\n    },\r\n    {\r\n      \"url\": \"http://127.0.0.1:8080/api/v1/system/status\",\r\n      \"status\": 200,\r\n      \"ok\": true,\r\n      \"body\": \"{\\\"success\\\":true,\\\"code\\\":200,\\\"message\\\":\\\"ok\\\",\\\"data\\\":{\\\"uptimeS\\\":17977,\\\"postgres\\\":{\\\"status\\\":\\\"healthy\\\"},\\\"clickhouse\\\":{\\\"status\\\":\\\"healthy\\\"},\\\"kafka\\\":{\\\"status\\\":\\\"configured\\\"},\\\"emqx\\\":{\\\"status\\\":\\\"unknown\\\"},\\\"source\\\":\\\"health_summary\\\",\\\"note\\\":\\\"当前展示的是服务健康摘要，不表示真实 CPU/内存/磁盘占用。\\\",\\\"items\\\":[{\\\"key\\\":\\\"postgres\\\",\\\"label\\\":\\\"PostgreSQL\\\",\\\"status\\\":\\\"healthy\\\",\\\"detail\\\":\\\"healthy\\\"},{\\\"key\\\":\\\"clickhouse\\\",\\\"label\\\":\\\"ClickHouse\\\",\\\"status\\\":\\\"healthy\\\",\\\"detail\\\":\\\"healthy\\\"},{\\\"key\\\":\\\"kafka\\\",\\\"label\\\":\\\"Kafka\\\",\\\"status\\\":\\\"healthy\\\",\\\"detail\\\":\\\"configured\\\"}]},\\\"timestamp\\\":\\\"2026-03-24T07:55:25.772Z\\\",\\\"traceId\\\":\\\"bafda3b4-ec4b-4864-bd25-562b54c50796\\\"}\"\r\n    },\r\n    {\r\n      \"url\": \"http://127.0.0.1:8080/api/v1/stations?page=1\u0026pageSize=5\",\r\n      \"status\": 200,\r\n      \"ok\": true,\r\n      \"body\": \"{\\\"success\\\":true,\\\"code\\\":200,\\\"message\\\":\\\"ok\\\",\\\"data\\\":{\\\"list\\\":[{\\\"stationId\\\":\\\"f829d79e-df13-4c5c-aadc-6d3341d7ada1\\\",\\\"stationCode\\\":\\\"DEMO002\\\",\\\"stationName\\\":\\\"示例监测点B\\\",\\\"status\\\":\\\"active\\\",\\\"latitude\\\":22.6892,\\\"longitude\\\":108.3579,\\\"altitude\\\":null,\\\"metadata\\\":{\\\"note\\\":\\\"seed demo\\\",\\\"riskLevel\\\":\\\"low\\\",\\\"risk_level\\\":\\\"low\\\",\\\"locationName\\\":\\\"示例监测区B\\\"},\\\"createdAt\\\":\\\"2026-03-22T13:18:59Z\\\",\\\"updatedAt\\\":\\\"2026-03-22T13:21:07Z\\\"},{\\\"stationId\\\":\\\"2dc06788-cb7b-4054-bfec-6426cea8e4eb\\\",\\\"stationCode\\\":\\\"DEMO001\\\",\\\"stationName\\\":\\\"示例监测点A\\\",\\\"status\\\":\\\"active\\\",\\\"latitude\\\":22.6847,\\\"longitude\\\":108.3516,\\\"altitude\\\":null,\\\"metadata\\\":{\\\"note\\\":\\\"seed demo\\\",\\\"riskLevel\\\":\\\"medium\\\",\\\"risk_level\\\":\\\"medium\\\",\\\"locationName\\\":\\\"示例监测区A\\\"},\\\"createdAt\\\":\\\"2026-03-22T13:18:21Z\\\",\\\"updatedAt\\\":\\\"2026-03-22T13:21:07Z\\\"}],\\\"pagination\\\":{\\\"page\\\":1,\\\"pageSize\\\":5,\\\"total\\\":2,\\\"totalPages\\\":1}},\\\"timestamp\\\":\\\"2026-03-24T07:55:25.787Z\\\",\\\"traceId\\\":\\\"121bb9a2-ccc9-44d1-ba79-d9353d0129dc\\\"}\"\r\n    },\r\n    {\r\n      \"url\": \"http://127.0.0.1:8080/api/v1/devices?page=1\u0026pageSize=5\",\r\n      \"status\": 200,\r\n      \"ok\": true,\r\n      \"body\": \"{\\\"success\\\":true,\\\"code\\\":200,\\\"message\\\":\\\"ok\\\",\\\"data\\\":{\\\"list\\\":[{\\\"deviceId\\\":\\\"a54609f8-0b39-44ee-a67d-1e33de71fdc7\\\",\\\"deviceName\\\":\\\"field-rehearsal-device\\\",\\\"deviceType\\\":\\\"multi_sensor\\\",\\\"status\\\":\\\"active\\\",\\\"stationId\\\":null,\\\"lastSeenAt\\\":\\\"2026-03-24T07:55:24.881Z\\\"},{\\\"deviceId\\\":\\\"ef260248-ca53-4796-86eb-d2caa39f842e\\\",\\\"deviceName\\\":\\\"field-rehearsal-device\\\",\\\"deviceType\\\":\\\"multi_sensor\\\",\\\"status\\\":\\\"active\\\",\\\"stationId\\\":null,\\\"lastSeenAt\\\":\\\"2026-03-24T07:50:37.098Z\\\"},{\\\"deviceId\\\":\\\"0bb110ce-990d-4c32-bc53-9ae596e3b1c6\\\",\\\"deviceName\\\":\\\"field-rehearsal-device\\\",\\\"deviceType\\\":\\\"multi_sensor\\\",\\\"status\\\":\\\"active\\\",\\\"stationId\\\":null,\\\"lastSeenAt\\\":\\\"2026-03-24T07:50:11.953Z\\\"},{\\\"deviceId\\\":\\\"4b2ce941-2f0e-48ef-8d01-e19ca32df68e\\\",\\\"deviceName\\\":\\\"field-rehearsal-device\\\",\\\"deviceType\\\":\\\"multi_sensor\\\",\\\"status\\\":\\\"active\\\",\\\"stationId\\\":null,\\\"lastSeenAt\\\":\\\"2026-03-24T07:35:16.997Z\\\"},{\\\"deviceId\\\":\\\"00000000-0000-0000-0000-000000000005\\\",\\\"deviceName\\\":\\\"device_5\\\",\\\"deviceType\\\":\\\"tilt\\\",\\\"status\\\":\\\"active\\\",\\\"stationId\\\":\\\"f829d79e-df13-4c5c-aadc-6d3341d7ada1\\\",\\\"lastSeenAt\\\":\\\"2026-03-20T13:21:07.226Z\\\"}],\\\"pagination\\\":{\\\"page\\\":1,\\\"pageSize\\\":5,\\\"total\\\":10,\\\"totalPages\\\":2}},\\\"timestamp\\\":\\\"2026-03-24T07:55:25.798Z\\\",\\\"traceId\\\":\\\"a1fc2fb6-9bb1-4e31-89ce-34dd6407b5fb\\\"}\"\r\n    }\r\n  ]\r\n}",
    "evidenceSummary":  "E:\\学校\\02 项目\\99 山体滑坡优化完善\\landslide-monitoring-v2-mainline\\backups\\evidence\\field-rehearsal-docker-20260324-155525\\summary.json"
}
